…
## Restraunt Inspections

``` r
data("rest_inspec")
```

``` r
rest_inspec %>% 
  group_by(boro, grade) %>% 
  summarise(count = n())
```

    ## `summarise()` has grouped output by 'boro'. You can override using the `.groups` argument.

    ## # A tibble: 37 x 3
    ## # Groups:   boro [6]
    ##    boro     grade          count
    ##    <chr>    <chr>          <int>
    ##  1 BRONX    A              13688
    ##  2 BRONX    B               2801
    ##  3 BRONX    C                701
    ##  4 BRONX    Not Yet Graded   200
    ##  5 BRONX    P                163
    ##  6 BRONX    Z                351
    ##  7 BRONX    <NA>           16833
    ##  8 BROOKLYN A              37449
    ##  9 BROOKLYN B               6651
    ## 10 BROOKLYN C               1684
    ## # ... with 27 more rows
…
